adder.vcd
$date
  Thu Jan 11 09:50:54 2018
$end
$version
  GHDL v0
$end
$timescale
  1 fs
$end
$var reg 1 ! clk $end
$var reg 1 " input $end
$var reg 1 # reset $end
$var reg 1 $ output $end
$var reg 8 % state[7:0] $end
$var integer 32 & current $end
$var reg 8 ' expected[7:0] $end
$scope module sr $end
$var reg 1 ( clk $end
$var reg 1 ) input $end
$var reg 1 * reset $end
$var reg 1 + output $end
$var reg 8 , state[7:0] $end
$var reg 8 - i_state[7:0] $end
$upscope $end
$enddefinitions $end
#0
0!
0"
1#
U$
bUUUUUUUU %
b0 &
bUUUUUUUU '
0(
0)
1*
U+
bUUUUUUUU ,
b00000000 -
#25000000
0#
0$
b00000000 %
0*
0+
b00000000 ,
#50000000
1!
b00000000 '
1(
#100000000
0!
0(
#150000000
1!
1"
1(
1)
b00000001 -
#200000000
0!
b00000001 %
0(
b00000001 ,
#250000000
1!
0"
b00000001 '
1(
0)
b00000010 -
#300000000
0!
b00000010 %
0(
b00000010 ,
#350000000
1!
b00000010 '
1(
b00000100 -
#400000000
0!
b00000100 %
0(
b00000100 ,
#450000000
1!
b00000100 '
1(
b00001000 -
#500000000
0!
b00001000 %
0(
b00001000 ,
#550000000
1!
b00001000 '
1(
b00010000 -
#600000000
0!
b00010000 %
0(
b00010000 ,
#650000000
1!
1"
b00010000 '
1(
1)
b00100001 -
#700000000
0!
b00100001 %
0(
b00100001 ,
#750000000
1!
b00100000 '
1(
b01000011 -
#800000000
0!
b01000011 %
0(
b01000011 ,
#850000000
1!
0"
b01000001 '
1(
0)
b10000110 -
#900000000
0!
1$
b10000110 %
0(
1+
b10000110 ,
#950000000
1!
b10000011 '
1(
b00001100 -
#1000000000
0!
0$
b00001100 %
0(
0+
b00001100 ,
#1050000000
1!
b00000110 '
1(
b00011000 -
#1100000000
0!
b00011000 %
0(
b00011000 ,
#1150000000
1!
b00001100 '
1(
b00110000 -
#1200000000
0!
b00110000 %
0(
b00110000 ,
#1250000000
1!
b00011000 '
1(
b01100000 -
#1300000000
0!
b01100000 %
0(
b01100000 ,
#1350000000
1!
b00110000 '
1(
b11000000 -
#1400000000
0!
1$
b11000000 %
0(
1+
b11000000 ,
#1450000000
1!
b01100000 '
1(
b10000000 -
#1500000000
0!
b10000000 %
0(
b10000000 ,
#1550000000
1!
b11000000 '
1(
b00000000 -
#1600000000
0!
0$
b00000000 %
0(
0+
b00000000 ,
#1650000000
1!
b10000000 '
1(
#1700000000
0!
0(
#1750000000
1!
b00000000 '
1(
